{
	"parserName": "CiscoWsa",
	"dateAsNumber": true,
	"logType": 106,
	"datePattern": "",
	"intro": "#Version: 1.0\n#Date: 2016-06-28 10:32:58.375000\n#System: 10.105.27.201 - inprtdrm01m.corp.planet-express.com\n#Software: AsyncOS for Web 8.0.6-123\n",
	"formatType": "csv",
	"ipOrURL": "url",
	"fields": {
		"%t": "<datetime>.000",
		"%e": "6",
		"%a": "<srcip>",
		"%w/%h": "TCP_MISS_SSL/200",
		"%2r": "GET http://<fullUrl>",
		"%A": "\"<username>\"",
		"%H/%d": "DIRECT/<domainName>",
		"%c": "text/html",
		"%D": "BLOCK_WEBCAT_12-DefaultGroup-DefaultGroup-Oubound_Malware_Scannng-NONE-NONE-NONE",
		"%s": "<bytesReceived>",
		"%q": "<bytesSent>",
		"%Xr": "<IW_chat,2.7,-,\"-\",-,-,-,-,\"-\",-,-,-,\"-\",-,-,\"-\",\"-\",-,-,IW_chat,-,\"-\",\"-\",\"Unknown\",\"Unknown\",\"-\",\"-\",0.00,0,-,\"-\",\"-\",-,\"-\",-,-,\"-\",\"-\">",
		"%?BLOCK_SUSPECT_USER_AGENT,MONITOR_SUSPECT_USER_AGENT?%<User-Agent:%!%-%.": "-",
		"[ Request Details: ID = %I, User Agent = %u, AD Group Memberships = ( %m ) %g ]": "[ Request Details: ID = 285721822, User Agent = \"Mozilla/5.0 (Windows NT 6.1; Win64; x64) AppleWebKit/537.36 (KHTML, like Gecko) Chrome/44.0.2403.9 Safari/537.36\", AD Group Memberships = ( NONE ) - ]",
		"[ Tx Wait Times (in ms): 1st byte to server = %:<1, Request Header = %:<h, Request to Server = %:<b, 1st byte to client = %:1>, Response Header = %:h>, Client Body = %:b> ]": "[ Tx Wait Times (in ms): 1st byte to server = 0, Request Header = 0, Request to Server = 0, 1st byte to client = 0, Response Header = 0, Client Body = 0 ]",
		"[ Rx Wait Times (in ms): 1st request byte = %:1<, Request Header = %:h<, Client Body = %:b<, 1st response byte = %:>1, Response header = %:>h, Server response = %:>b, Disk Cache = %:>c; Auth response = %:<a, Auth total = %:>a; DNS response = %:<d, DNS total = %:>d, WBRS response = %:<r, WBRS total = %:>r, AVC response = %:A>, AVC total = %:A<, DCA response = %:C>, DCA total = %:C<, McAfee response = %:m>, McAfee total = %:m<, Sophos response = %>, Sophos total = %<, Webroot response = %:w>, Webroot total = %:w<, Anti-Spyware response = %:<s, Anti-Spyware total = %:>s; Latency = %x; %L ]": "[ Rx Wait Times (in ms): 1st request byte = 0, Request Header = 5, Client Body = 0, 1st response byte = 0, Response header = 0, Server response = 0, Disk Cache = 0; Auth response = 0, Auth total = 0; DNS response = 0, DNS total = 0, WBRS response = 0, WBRS total = 1, AVC response = 0, AVC total = 0, DCA response = 0, DCA total = 0, McAfee response = 0, McAfee total = 0, Sophos response = %>, Sophos total = %<, Webroot response = 0, Webroot total = 0, Anti-Spyware response = 0, Anti-Spyware total = 0; Latency = 6; \"13/Jan/2015:00:00:05 -0400\" ]"
	},
	"advancedCSV":{
		"titlesFields": "#Fields:",
		"delimiter": " "
	}
}