{
	"parserName": "CiscoASAformat2",
	"logType": 103,
	"datePattern": "%b %d %H:%M:%S",
	"intro": "",
	"ipOrURL": "ip",
	"dateAsNumber": false,
	"formatType": "orderedline",
	"fields": {
		"line": "<190><datetime> 10.208.178.7 %ASA-6-302014: Teardown TCP connection 106810160 for OUTSIDE:<dstip>/80 to INSIDE:<srcip>/54304 duration 0:00:00 bytes <bytesReceived> TCP FINs"
	},
	"hasBytesFields": true,
	"isDoubleLine": true,
	"doubleLineReplaceStrings": {"<dstip>/80": "<srcip>/54304", "for OUTSIDE": "for INSIDE", "to INSIDE": "to OUTSIDE", "<srcip>/54304": "<dstip>/80", "<bytesReceived>": "<bytesSent>"}
}
